…
Now we can introduce several very useful functions for working with
pipes

`group_by()` and `summarize()`
------------------------------

Now we can create groups of data and then perform a function only on a
group of data.

    # To see hindfoot_length by species
    surveys %>% 
      group_by(species_id) %>%
      summarize(mean = mean(hindfoot_length)) # the mean is just all NA's, mean returns NA if there are NA's in the data set

    ## # A tibble: 48 x 2
    ##    species_id  mean
    ##    <fct>      <dbl>
    ##  1 AB            NA
    ##  2 AH            NA
    ##  3 AS            NA
    ##  4 BA            NA
    ##  5 CB            NA
    ##  6 CM            NA
    ##  7 CQ            NA
    ##  8 CS            NA
    ##  9 CT            NA
    ## 10 CU            NA
    ## # … with 38 more rows

    # now we fix by addin in a filter
    surveys %>% 
      filter(!is.na(hindfoot_length)) %>%
      group_by(species_id) %>%
      summarize(mean = mean(hindfoot_length))

    ## # A tibble: 25 x 2
    ##    species_id  mean
    ##    <fct>      <dbl>
    ##  1 AH          33  
    ##  2 BA          13  
    ##  3 DM          36.0
    ##  4 DO          35.6
    ##  5 DS          49.9
    ##  6 NL          32.3
    ##  7 OL          20.5
    ##  8 OT          20.3
    ##  9 OX          19.1
    ## 10 PB          26.1
    ## # … with 15 more rows
…
